3.2227932475092,4.14199740536263
3.16372946850221,4.16722072266977
3.16572570582412,4.19079625288412
3.12187993945726,4.1942030638027
3.08154903557788,4.20770507587597
3.05241021117764,4.18347816884173
3.0103504950974,4.19228747887957
2.94795346768673,4.16674258313341
2.93023156842665,4.22102075470702
2.86339628535587,4.1757338194354
2.79843048714287,4.17621291319208
2.73199130672644,4.16209101147156
2.53124199707903,4.19979494824227
2.48312379321225,4.18080887403964
2.40359636523596,4.20092132868522
2.36816173623457,4.20662842921583
2.32444543421635,4.21683564438478
2.26015452835424,4.20482433094133
2.19241115935663,4.19832041667164
2.15406431244997,4.22050787878557
2.0872144208814,4.24656397342367
2.04478406065463,4.24751055839951
1.9556787317786,4.2213720817964
1.92025745527277,4.20648327979631
1.68295302678558,4.23750975171655
1.61387129057883,4.22142588367732
1.59489892253524,4.21487093556459
1.55430920280675,4.19418079586421
1.49323601002903,4.20024815473295
1.43379500769868,4.19282769060667
1.35851001716414,4.20318537615911
1.34101584776886,4.21454779442677
1.30908388082939,4.16794998279115
1.26725246020108,4.13913446339117
1.18816346098595,4.11495567668071
1.16192043351332,4.13886112693135
1.14646901372712,4.10962780248829
1.02872429215832,4.06974227173378
0.787067679558503,3.62336738034399
0.751490598866695,3.63391344332868
0.738929437084543,3.62476096277044
0.475012414276215,3.48501918557221
0.423893582737595,3.46480139421931
0.426213939144023,3.4325983525793
0.402173680713605,3.38872970773407
0.372492647825023,3.34979771401303
0.35985679204017,3.32063311967348
0.326012081134005,3.28240575742687
0.257720554616717,3.26540870622618
0.266865068116328,3.19452830981759
0.176753981075611,3.1680600821703
0.102878968032535,3.15079056452786
0.21217637791309,3.10661403943209
0.153899101154848,3.09883862430583
0.195990316367708,3.01403432996117
0.185707680710166,2.97197207286456
0.148877435506365,2.96266186867924
0.058826209642679,2.86867751189479
-0.081574695351647,2.8345434686194
-0.073249813932638,2.77961787820278
-0.010746400306387,2.75101113685802
0.00288429239588,2.71895455780548
-0.026868911805563,2.65975295441109
-0.084805956799165,2.608714170665
-0.065557448643752,2.5870085858709
-0.037060630097745,2.53363798617951
-0.139465080428617,2.4757434246286
-0.074030127836659,2.41408391018808
-0.091693812095434,2.37025696576605
-0.099650048202429,2.30849459590018
-0.094423237995211,2.27892637445365
-0.127150574589815,2.21506209207528
-0.111586997356461,2.18339809500005
-0.080701715522666,2.1547592489207
-0.087703010146349,2.12159538645367
-0.081323276532756,2.04444324688054
-0.087848436362738,2.00416979425242
-0.090257969034898,1.96645387428637
-0.074342880912183,1.91334166209362
-0.082714963396626,1.85923578806654
-0.081966033988648,1.82592754931472
-0.09539108257569,1.76813630127541
-0.061197701250741,1.75169273762038
-0.061576449173362,1.67085365506326
-0.05696601932245,1.64100810174532
-0.013756985431432,1.58921422914867
-0.149750048995861,1.56656540841567
-0.010345956606494,1.52692598032968
-0.075779084914397,1.4871337492788
-0.010011108700798,1.42463257795304
0.124288716652294,1.37958900081537
0.086337078075562,1.31774872948017
0.139676449826981,1.2614818286595
0.103089082333341,1.25086096953054
0.141081616633062,1.22022173484664
0.139844454822337,1.16521549518737
0.206799442256153,1.13265668402374
0.179145474444518,1.12007220135879
0.206120735173388,1.07027240260774
0.214946338574237,1.04752864427556
0.241130146152223,0.986529129102297
0.267790335596035,0.925974415379223
0.27445829510029,0.906085028229858
0.305363254749331,0.860074167169814
0.334544803224422,0.839493973172757
0.351219652622752,0.830163009371231
0.419769462620453,0.750983745730584
0.44238281542726,0.720396751811834
0.492180117585713,0.688249089517199
0.494532132802062,0.685591827172531
0.545051442318497,0.641890005567199
0.588082188490605,0.635364161779847
0.622220199182368,0.601162924910826
0.658585944700844,0.589356872357444
0.702179435552686,0.573054523308378
0.719502479757844,0.548226150059887
1.01696979734588,0.136662902346917
1.0433278943059,0.151299586423695
1.10199968396997,0.122791094714404
1.16004884656806,0.123784438877936
1.18270315356665,0.113718255145119
1.21731643637426,0.064338696168372
1.24822288222381,0.072468276482619
1.29449026702057,0.084475688468879
1.34887127520003,0.063122419343545
1.38460179162148,0.078443774933845
1.45796057497988,0.044153909161839
1.48045350564442,0.017078809185759
1.52350311593156,0.003889681675442
1.56341022565853,0.044017397128905
1.61717340953231,0.019465312269018
1.67467664904049,0.036958157319794
1.70794463520766,0.021981417758402
1.78401740448634,0.004389801367638
1.79513011581453,0.009892765066006
1.86288513189308,-0.003877366777404
1.91064181884314,-0.019403408446834
1.92846891031932,-0.001071402741652
1.99139002894568,0.015840143791162
2.0224494236031,0.028251074994225
2.09675808208176,0.027803144997313
2.12387378809739,0.022639789975735
2.20218998389273,0.031676919379459
2.26435898506204,0.025518838174554
2.32077267684821,0.042111903088935
2.36183963850798,0.013948771232825
2.38593995768708,0.035392791827296
2.42823068231581,0.028437191527689
2.46092721238858,0.025023221648783
2.53919664850853,0.025561342735773
2.59361791828361,0.01084951987623
2.65341641092353,0.000453965938845
2.71883529508286,0.065928515338916
2.74461896404118,0.031846980175457
2.80687923399005,0.05613381456611
2.84915364022226,0.006240696607925
2.91079308810633,0.005956462835632
2.95215352194468,0.004965386658573
2.99834814801459,0.037973008604209
3.04775721611794,0.02632676598123
3.10660054541842,0.007919134712054
3.17523536718173,0.016610599620865
3.21872620380952,0.031551432602506
3.26321593208161,0.021725902234262
3.33883756638829,0.038169898101136
3.34769075401523,0.027125586738077
3.44953940820933,0.039131067537449
3.47412637318322,0.038104974861602
3.5156965083474,0.015938480304711
3.56953163574076,-0.007448426126353
3.57519637396702,0.020861035924623
3.65986236755692,-0.0412871823703
3.69282704427507,-0.017788784452281
3.7751034847015,-0.004920119829696
3.80933374348659,-0.018929496340952
3.85157411594028,-0.009403732778882
3.90048863511554,-0.036801943277613
3.97677724627244,-0.047925523390363
4.03896400146647,-0.001294041517598
4.07891059334999,0.017690865275717
4.12634559554666,0.041389325497356
4.20875481885123,0.005458248674953
4.2380438272713,0.025536420950068
4.30545506639925,0.009962477946903
4.37030897866481,0.012078467236751
4.39903910609365,0.019592803590813
4.46295333446765,0.015880698507251
4.51299073142657,-0.014017733661832
4.54836228101042,-0.024298771987279
4.60716114256378,-0.019520435882534
4.66685596519436,-0.028818249370264
4.69395324870518,-0.015358374398917
4.75907995672721,0.019756412906736
4.81326829041547,0.008816346939106
4.86060793230283,0.019696737005054
4.8721623879026,-0.016208279151001
4.96080347712673,-0.031211098597532
5.01803271625004,-0.04020151279957
5.06518649453061,0.008370097858499
5.15168839747921,0.010503647574964
5.19054256881919,-0.007277211579397
5.23090144245403,0.005231122245075
5.32312977241687,0.04879949506899
5.35025312391222,0.003313571773872
5.37966874658696,-0.007183411106552
5.46905263854365,0.001686047538832
5.47908865621126,-0.008816440624051
5.58637461891733,0.000674253331517
5.61600178986285,-0.007296554993432
5.6557769210878,-0.002974611930599
5.72684845497469,0.017648466699719
5.77809721181984,-0.002400796438717
5.83663991487699,0.032707891985676
5.84628858425136,-0.004083005457471
6.02582338954367,-0.017634337823102
6.05726897237284,-0.047296053516477
6.06687299576461,-0.019514388884839
6.11347140512939,-0.028722035167237
6.14892613120908,-0.038223576441477
6.15940828871183,-0.027433255705962
6.24608770057116,0.02933382103103
6.2393457226347,0.02188983617271
6.29897640421666,0.039635836738669
6.33613671344783,0.088110871482209
6.3594888504225,0.112080922679677
6.38904938138392,0.117602022251059
6.41629836655423,0.162956544513501
6.42060604485751,0.16246028872373
6.48673062719584,0.231409654143395
6.46996734449355,0.231167281081791
6.48671121750129,0.270307368290893
6.54081930457241,0.34841202733746
6.55165273696779,0.355394392080156
6.58454405680551,0.495311237189972
6.58869964056721,0.547055466319732
6.6111348477414,0.601263613272169
6.58719534810642,0.590999833563345
6.56990410629604,0.649173591750318
6.54475000403542,0.62726535214822
6.5693150142762,0.700398629810324
6.54409172660193,0.784100138803438
6.49949507175649,0.778352652839934
6.48034879590361,0.806420670249584
6.49136752912076,0.872929749309248
6.46595339379532,0.837393187036838
6.44485830120942,0.874240341012228
6.42610826544138,0.898101588892049
6.38895269563477,0.898481901038248
6.39951392226629,0.962933789577703
6.36103170946374,0.932918490653694
6.30467651837993,0.934272093489102
6.27842784260916,0.955719742078124
6.26694409885417,0.983335164534324
6.22678963098792,0.990509397690181
6.16930444939095,0.959866217544815
6.06823657447014,1.01778806326326
5.92765334417111,1.02096894573384
5.87290927700929,0.995901039081921
5.85807318514692,0.997078141131969
5.79242937184287,0.994585535705604
5.7190316480543,0.969125278644225
5.68635716351952,0.9850958065855
5.65279177956037,0.993256825500736
5.59943498993468,0.972972220523748
5.53547746410132,0.981438311914211
5.51553394274047,0.962965297177999
5.45033797251536,0.978686578375715
5.40696762834378,0.955097156373855
5.3633115622137,0.956162557025966
5.25965057528678,1.00181629603113
5.22424045763914,0.969916435794453
5.16339411911366,0.963246527663987
5.08124966609373,0.974082717945432
5.04522458782604,0.972729420540234
5.01783151880593,0.953190497171762
4.98711414757406,0.966853402589362
4.92951583238396,1.02274439885658
4.89330117485203,0.979608143578981
4.86346730643558,1.00162065938112
4.81952720695915,1.00513533081415
4.78093570727727,1.00910493572099
4.77784537302836,1.01800400613228
4.71720894551866,1.04692236195301
4.68490455361497,1.07176044277807
4.62429405335015,1.07993641427775
4.61654294993312,1.07412046013669
4.6098788344821,1.10130236384421
4.53999437311452,1.10532866941254
4.53486778489659,1.13157026357595
4.50465855932557,1.12757469207274
4.47500663456731,1.14367151795049
4.43881755657037,1.16580376468899
4.41801069695575,1.16302877344714
4.38107534504689,1.19600359646274
4.3383897955785,1.20564968324621
4.16722641012615,1.62452627303126
4.13082068747828,1.67292530318911
4.12366443605857,1.68875331822901
4.10086316743927,1.70066962270537
4.06779400345403,1.7149573404575
4.04908793471419,1.76401773200319
4.04710736064423,1.74856862104373
4.04413316921069,1.78151460128774
4.03911305407658,1.78786916224918
4.01596000687599,1.81150761704595
3.99660091757547,1.79905115644772
4.02041757611192,1.88582118781741
3.9887494705188,1.91032561937528
3.97438999081826,1.931720399077
3.94007665902179,1.95372876183834
3.9527964919831,1.97870674955014
3.95197831023252,1.95837752220319
3.92888083841807,2.03493808772396
3.94206262017096,2.02517518944943
3.93110998488671,2.07285474568295
3.92531447377687,2.12981501007458
3.92969909633894,2.127564963073
3.95323543053066,2.15641922629462
3.91778579019655,2.18658711751188
3.93466898293227,2.27494678901712
3.92464007056479,2.28575934393591
3.92552192137875,2.28170887982656
3.93646985729078,2.34107143402939
3.94482091458257,2.42607495656086
3.93323940500403,2.41364767878929
4.10730844439509,2.97882894045468
4.08458130899211,3.04857259832153
4.07639646310995,3.09096921007986
4.0843860164013,3.11168523856875
4.07256844383273,3.11011743218144
4.0669581953356,3.1833797353267
4.06808024198799,3.24822951492029
4.0675086964987,3.30952451976549
4.06095675070031,3.28537967612123
4.05593747330153,3.33067027724849
4.03929024008512,3.35888616948525
4.05673325050796,3.44205991166341
4.03274225026565,3.446439335676
4.02266734561987,3.48245097852024
4.0075341909403,3.51878668757611
3.99162357272805,3.55152809677999
3.98685272646802,3.54678676624427
3.98120098297027,3.63936193507109
3.95000577068325,3.6391964922553
3.9441874499833,3.66657019182062
3.91418348685428,3.69138478617426
3.90322526210809,3.73206632345775
3.87278570655345,3.77099303136435
3.85830428137631,3.79938281323233
3.84585407633284,3.85233381898558
3.80638492026789,3.86668342139873
3.77938058293671,3.87068474522061
3.75527790015442,3.94597819192309
3.70475882472706,3.99519213898791
3.69135118135774,3.99789214270944
3.6648389528979,4.00847801402205
3.62906863882248,4.04181831773404
3.54881332078928,4.03497190377289
3.50468596788242,4.08304899893374
3.49132233865147,4.08615464610614
3.4447453665221,4.109713181638
3.42103325004425,4.10344458325655
3.36637054424529,4.12103551895191
3.3409763614807,4.14129881037945
3.29889766751361,4.12040206771352
3.26322932169044,4.16291731103125
3.24947591608779,4.15215538405026
3.18233355132696,4.15524613350985
3.15781452190862,4.14885679150446
3.13469026909341,4.18878803094993
3.09714702856465,4.18783082230917
3.05142485277136,4.19393627964125
3.01773931240068,4.17968559130263
2.97280830856778,4.17433845710399
2.92904511512902,4.19078556994492
2.69230240802965,4.14651500363354
2.63485060895669,4.19006939239362
2.5719917510737,4.16701422295729
2.53483528582503,4.17635912427097
2.48442375238197,4.16802210886223
2.42844375469566,4.22473953838741
2.36711710058921,4.18376149700054
2.32512078714061,4.19614958291551
2.29185735047017,4.20869863358232
2.21794885987192,4.2178149383427
2.16469464269431,4.19670128160129
2.10106529535278,4.2318175058076
1.81818924657437,4.21905209950361
1.80316417695346,4.23223513115416
1.72301334193776,4.23709584636252
1.68376783478325,4.22022796226799
1.63777096703086,4.23198619943843
1.61009041480684,4.21277093526535
1.56824578262774,4.20367995631967
1.50620861548952,4.17828551508583
1.45595888405052,4.17663074916374
1.37296494585474,4.19580791578997
1.32353109809175,4.1779581536715
1.31420186100868,4.14634214032142
1.27894786465195,4.15220875583371
1.22652697445742,4.1012224733099
1.16494705986231,4.11353285623485
1.14095534746739,4.12848197351104
1.11373005733628,4.06701148638507
1.03588103986417,4.10212950780043
0.771535855337134,3.64543110939529
0.745668388644497,3.62743013159081
0.746887119346621,3.63057428736926
0.680389513763933,3.62300205519083
0.633559839275961,3.56564079687219
0.593575619824025,3.55925274318647
0.600658775030544,3.54927490026276
0.56769886880956,3.51303470516308
0.507695355677268,3.51987788361001
0.446468158114274,3.45881764697068
0.43642880916496,3.4499750654692
0.342957971651242,3.43627330846354
0.386452406947815,3.37390630103132
0.347939524378146,3.35809907934453
0.350154363884458,3.32916505184923
0.325267479049454,3.2730540986419
0.254412292280574,3.24152472299072
0.246892726986264,3.18795989169786
0.248408062404485,3.16722499818996
0.167820166787249,3.13504121948073
0.205217863182224,3.0652331649742
0.160216714804837,3.03709017244696
0.195084325609853,3.01244839058546
0.137556245232985,2.96475190820988
0.104750327492669,2.93790597055109
0.010259107593427,2.85081076741081
0.015460794525224,2.84010676633762
0.002712738383968,2.76000692285304
-0.029876023411143,2.70131136393854
-0.016745494906787,2.66964762059599
0.000180787653858,2.6429708261743
-0.033147447279078,2.60308622227973
-0.052048537395115,2.553866248124
-0.079032036632569,2.51080122247796
-0.062993286933893,2.45456399464669
-0.080982556433306,2.40702938757556
-0.098117646282644,2.35737824938136
-0.093069681835923,2.32816149429083
-0.08611661639207,2.23388580655055
-0.117468518514837,2.23236996348081
-0.108291403868941,2.18321780819747
-0.108853770581235,2.13398023498319
-0.097048064433468,2.11475651617079
-0.07865628404278,2.06049205733946
-0.087703209662468,2.03259186947065
-0.096774069182213,1.95037900783424
-0.082783215795417,1.86211373420231
-0.085102736257537,1.8189245683405
-0.055664784114876,1.7891484676456
-0.048356489273832,1.74653148469231
-0.066370541599165,1.72686935954604
-0.057697687978881,1.65804801038195
-0.051983423193766,1.60560769149128
-0.044967993656944,1.58598037299192
-0.024511010436003,1.55266343998301
-0.013997038463447,1.48667406933852
0.000167022250786,1.45361103153233
-0.065363724665077,1.40749030579113
-0.008433347578701,1.35876280164229
0.05800443060973,1.33061166212332
0.07681336165499,1.28348619502437
0.044329040952292,1.24658816129024
0.173762731783581,1.21143111533989
0.156098049473401,1.15771837109284
0.143143405388303,1.13983434489944
0.212916896321145,1.11954928890885
0.198663804852652,1.07165970319097
0.221570753603992,1.01719129184489
0.225231611997929,0.954841335178604
0.248036332310641,0.923293399627643
0.292075189224441,0.873165350906234
0.335277185506677,0.84163339620927
0.334589370545143,0.831709764323202
0.361790972430035,0.789963615990792
0.403607318562741,0.751633557468025
0.464779603042284,0.736432658445768
0.602459548436861,0.641665698834271
0.632136257793887,0.583952531421821
0.688412633926463,0.576527260477835
0.710911070285606,0.536058856504322
0.726885578537274,0.538089296414918
1.02784366848629,0.186836828990004
1.04888002496288,0.157496775015896
1.12957338874698,0.11762396456987
1.13407201250199,0.119921501334926
1.19283866670339,0.105859407332211
1.224087565403,0.08611396905723
1.27103936842162,0.064851258622927
1.32201330693594,0.083277086220427
1.3600482779732,0.055916705426538
1.39589112584176,0.113805348436893
1.47357468113417,0.044445917065309
1.47711047589278,0.043990612440293
1.55026104916752,0.008192985616989
1.60644845501221,-0.00134231364795
1.61979407337657,0.043091749966845
1.64963543506516,0.008338303337623
1.74305111217894,0.008479146482755
1.78480711441406,0.040916161870617
1.82675994854524,0.032861506977769
1.88570823801415,0.030509730401558
1.89312744518691,0.041349231460659
1.9643585813974,0.024598730908107
2.03558580384721,0.046758934581388
2.07070708581339,0.027007355288039
2.13260714073758,0.046551119877837
2.18408982482099,0.010951811735391
2.24136217784591,0.07338118791074
2.27354511982181,0.063366107542185
2.31324445608566,0.080460754589918
2.37588750281777,0.090124240803082
2.42213981382002,0.048693302789784
2.47678094016645,0.05000799975361
2.5293681579811,0.034125205110496
2.5963554335195,0.071784494436143
2.6471672889777,0.059543673090684
2.68875782258123,0.060563783455075
2.73145797102337,0.041779995788302
2.80209380189388,0.017042366647255
2.82978080083394,0.046040626890333
2.87126642518215,0.038610270779852
2.90562796099815,0.055353524217088
2.99110273396029,0.034246419928157
3.0624741948503,0.067404730064654
3.1202680724414,0.019948786797955
3.16262353701596,0.01868247850188
3.2256470146847,0.043962832493058
3.264545599233,0.052357895982535
3.30765380400733,0.046226017703841
3.34847872242668,0.051433868870033
3.41384470567316,0.026582209731348
3.45876641522779,0.009179308585175
3.48610735525133,0.039149028099777
3.55008629622052,0.014122835947228
3.58444784935928,-0.002633880741235
3.64155274805156,0.010380626916589
3.69806151569397,-0.020516315594291
3.78102194691587,0.009719746995503
3.83608384656641,-0.006371259870457
3.89580009870984,0.018738376837772
3.93189114618118,0.00173682193489
3.95564487060341,-0.021424064169081
4.03299057931748,0.018047514318758
4.07947334000167,0.004601750868948
4.12988804709101,0.029577155371324
4.16950831061816,0.000128256486554
4.19435961556556,0.004648711394894
4.28600898795734,-0.000129202989054
4.32937582025931,0.013141940476478
4.39041747958855,-0.003492441735169
4.45722165694212,0.006851083366281
4.48810388052267,-0.008798410148489
4.5350434395552,-0.007923496237238
4.61089626269606,0.003208447677169
4.64718375802807,-0.003947657841218
4.71818711322861,0.015313944689247
4.76906613565925,0.010900775242004
4.85703342601159,0.016761569340832
4.88050119252959,0.00331176693185
4.93014921959105,0.001268155326431
4.9950055896934,-0.010286270511601
5.07325579172789,0.009043448542055
5.07889697987214,0.004623726604132
5.10762147560307,-0.002914718662744
5.22306335611439,0.028813788131899
5.28248219445724,-0.002230532702842
5.30802789288486,0.00932140445633
5.37401271877767,0.024466128132045
5.39708840623375,0.029663308916936
5.47283768306029,0.004060653464463
5.52417886630776,0.013020023147502
5.5659960677734,-0.01823619787337
5.6136459384358,0.013177201983147
5.63907216565103,-0.018754490073039
5.70479452798723,0.006314797703651
5.76660289767717,0.00023076304851
6.1033456972099,-0.056973258669424
6.11529561203497,-0.035266937325372
6.13211544979364,-0.040662026393056
6.15086737149224,-0.001688179700086
6.23185916837895,0.030154747986364
6.24985999805697,0.030975087688252
6.29521802744669,0.026596799573325
6.31496820630828,0.089739827462483
6.35195578362326,0.123155831049122
6.36526967873145,0.11023152184459
6.37849447565378,0.150359066047636
6.43314084178153,0.206648662259931
6.45108480084364,0.193955600618502
6.46664093022954,0.225039734284664
6.4729962237816,0.231219162021358
6.48047617898394,0.269076366456011
6.51933040604746,0.336148057698163
6.55134322384506,0.338262213541874
6.54199010582437,0.364776680379417
6.5856649358656,0.384229414465399
6.56505072417502,0.442652225395108
6.56023416271197,0.40062937576327
6.58888435611364,0.561616566803586
6.5894284001468,0.549367622684142
6.59771641660692,0.611744347357278
6.61907535183866,0.645515970582998
6.59165523311438,0.654062222376643
6.58760588255971,0.667672384098218
6.54975429528692,0.689298257229581
6.51107844020444,0.760717094507566
6.53668547517327,0.795915218466421
6.509258239965,0.795808135033767
6.50578769324358,0.843145644842693
6.44910030593656,0.873973984734812
6.45048489932142,0.896090660802085
6.45541626130277,0.873470093721311
6.4282974823231,0.891399014326703
6.35953769239504,0.954968346905179
6.38823206301692,0.905388390364454
6.33152644233427,0.972765153176269
6.31049594198241,0.966049267334675
6.27966730857297,0.994875938950626
6.24765836475367,1.00331458001827
6.21744575068195,0.96006194832354
6.1677820089451,0.990058280215404
6.12489972316578,0.97301570306572
6.05292802015014,1.00521461297939
6.05233531176569,1.01571398976818
6.05622675345736,1.00156906435276
6.02127559019937,1.01607947920276
5.97379490446614,0.960855028484674
5.93397861545522,0.990782288852011
5.86593365289411,0.969166200523094
5.8335961479622,0.966533050640739
5.75397258316046,0.972885766583381
5.7108290730904,0.951913716109325
5.66296050233689,0.992536896097397
5.6278700376672,1.0203439968301
5.58231500466162,0.963469293544452
5.51611656673563,0.974346933209341
5.4816602617505,0.980290918380091
5.41825686715603,0.99392924038603
5.38269724450563,0.976479795471514
5.33192596292667,0.937119557680406
5.22127308590224,0.995723710022595
5.21247953229821,0.976509390058721
5.13482415121474,0.947071902328502
5.0794707748786,0.994214967531127
5.04051905658409,0.969608088828744
4.98158977247854,0.980097660539418
4.93618448332769,0.993267733450003
4.93271284458353,1.0167173709417
4.85769336747857,1.05108655784941
4.86870085795123,1.01835645546563
4.82428256883032,1.00500573668084
4.77706281396322,1.02933624067065
4.73605775465173,1.02066369802813
4.69245745338463,1.10457327289903
4.66047258865535,1.0612424244111
4.63140836622625,1.06044478355562
4.60121725829351,1.10625789221899
4.56165593605152,1.13802018525945
4.56028929944724,1.11454041350935
4.54286100807825,1.13030644450251
4.4650703849874,1.13782686789129
4.422714832451,1.14495210636922
4.41367932295828,1.16965108307144
4.40238506693207,1.17822445785644
4.37318453107514,1.1708843198181
4.33165169607751,1.24907355319627
4.16414903570574,1.64425353503581
4.13551706471166,1.71964068859691
4.12227110692268,1.65759516840621
4.08795548689423,1.64510229074769
4.06123173322333,1.74666169345597
4.03577888061682,1.77105730521824
4.02304473386273,1.78273229919725
4.02658881045556,1.80278700792998
4.00773990258609,1.79861986826621
4.0037105473603,1.83466272952231
3.99742473369588,1.88941757905237
3.99153834990385,1.92488190665842
3.9616688219491,1.9426942569397
3.93998471212794,1.94758481809306
3.94181177550217,2.00178161169192
3.92983945531333,1.99838169923587
3.94008204874644,2.01226337753008
3.94759179454249,2.0381124626868
3.93780332718132,2.0070054564203
3.92456443102391,2.11589253413538
3.93498411414655,2.16978654491579
3.91515123740068,2.13613788438322
3.93758705413071,2.20880848746113
3.94869305521879,2.17458296288714
3.95540985225114,2.2823444041036
3.92641826277099,2.36644641248161
3.93480923008999,2.34139752382147
3.9443151358169,2.40244408220789
3.9503714362313,2.47378627950226
4.07746244761879,2.98317822703513
4.07724645509668,2.98885689198015
4.06408654232044,3.02577521324904
4.0741974322051,3.06447855594919
4.05865752635431,3.1094616983684
4.06711096796719,3.21040127324342
4.0976310021036,3.22399330483929
4.04580810171958,3.26945062731249
4.07424337540122,3.30004102774315
4.04832196097186,3.29225082195008
4.07844234270015,3.36984006672222
4.05430669026712,3.41917230645037
4.02162437380503,3.44965325653092
4.02492496231777,3.49303881044316
4.00093719320952,3.52868090724283
3.98562161861265,3.50313234035887
4.00301318517532,3.57613990812803
4.01438618089826,3.64600731653569
3.95005001884452,3.57368951022721
3.96380834869427,3.69241894289868
3.94888581921721,3.69581903414037
3.90914855427383,3.70416001820769
3.88848062798705,3.78327072746339
3.88405052696211,3.79108934786351
3.83409240592935,3.8307636324499
3.81731088452398,3.84463602101849
3.76920622696857,3.85839823706227
3.73070990199561,3.91743676343898
3.7202190174734,3.98265634147537
3.68891114354704,3.9692360995861
3.63368139529018,3.98686547997394
3.60179124261951,4.01081305163088
3.58195217646934,4.04656891722133
3.55782599264455,4.10458988037125
3.50047645404174,4.06799084209321
3.45602772565443,4.08426297394982
3.39569830749504,4.10960592633285
3.37846560217867,4.0978445324206
3.34046980544392,4.11711610128909
3.29889766751361,4.12040206771352
3.27391732131376,4.13874242744504
3.22175430607805,4.14475399469944
3.1964747120925,4.16828797012943
3.13882270798129,4.1551821951059
3.1236140540549,4.18188451504693
3.08182754148687,4.18618117241744
3.06333789890698,4.17300676046358
3.04517882805252,4.17212083175325
3.00227900270252,4.19155490588074
2.94810379722004,4.19952920285575
2.8662365695739,4.14895955634941
2.79155736001762,4.14441878033537
2.73689111812066,4.15453856946548
2.69572568899571,4.13443746140852
2.65806650423598,4.20108745971911
2.61065810107424,4.20655492342583
2.56319368269587,4.19798864019947
2.49543803076926,4.18797185495076
2.4630539387674,4.16542723918822
2.39618892897184,4.21327730456633
2.33749333526386,4.1915635714951
2.29409172082057,4.17338029042989
2.23126838974358,4.18350863353984
2.17159938834703,4.19560039087366
2.12075249697839,4.20972709537719
2.02646841026401,4.20343337810042
1.98629980891398,4.19090079181941
1.95001260176925,4.21737770427121
1.90403664586636,4.23592454205227
1.85827906831672,4.22207447151515
1.78686791486808,4.22199587594002
1.75168999674853,4.23265317607874
1.72782716738767,4.22987366435291
1.64809525346591,4.2068878337334
1.63003447495197,4.21963844378473
1.593196427645,4.21638263928771
1.52904570670884,4.1745264196404
1.47783938630497,4.2039405740809
1.40491677491261,4.23791223771962
1.33313407807969,4.22208391354222
1.3380199530316,4.13692122767744
1.30510883033127,4.13220088662528
